{
  "project_info": {
    "project_number": "92867599606",
    "firebase_url": "https://pallcall-51b0f.firebaseio.com",
    "project_id": "pallcall-51b0f",
    "storage_bucket": "pallcall-51b0f.appspot.com"
  },
  "client": [
    {
      "client_info": {
        "mobilesdk_app_id": "1:92867599606:android:deae44dbb548d4ee",
        "android_client_info": {
          "package_name": "com.eyad.alkronz.paltelproject"
        }
      },
      "oauth_client": [
        {
          "client_id": "92867599606-s161svbdi15jvab0es1gk9vj3jggeu9k.apps.googleusercontent.com",
          "client_type": 3
        }
      ],
      "api_key": [
        {
          "current_key": "AIzaSyD4eEzJIRq5jK4cUllPb323YdJZi9vkGuk"
        }
      ],
      "services": {
        "analytics_service": {
          "status": 1
        },
        "appinvite_service": {
          "status": 1,
          "other_platform_oauth_client": []
        },
        "ads_service": {
          "status": 2
        }
      }
    }
  ],
  "configuration_version": "1"
}